<?xml version="1.0" encoding="UTF-8" standalone="no"?>
<!-- Created with Inkscape (http://www.inkscape.org/) -->

<svg xmlns:dc="http://purl.org/dc/elements/1.1/" xmlns:cc="http://creativecommons.org/ns#" xmlns:rdf="http://www.w3.org/1999/02/22-rdf-syntax-ns#" xmlns:svg="http://www.w3.org/2000/svg" xmlns="http://www.w3.org/2000/svg" xmlns:sodipodi="http://sodipodi.sourceforge.net/DTD/sodipodi-0.dtd" xmlns:inkscape="http://www.inkscape.org/namespaces/inkscape" width="273" height="529.2" id="svg4221" version="1.1" inkscape:version="0.48.4 r9939" sodipodi:docname="armpit_to_waist.svg" inkscape:export-filename="/home/susan/Documents/Valentina/Measurements/Database/images/A1.png" inkscape:export-xdpi="96" inkscape:export-ydpi="96">
  <defs id="defs4223" />
  <sodipodi:namedview id="base" pagecolor="#ffffff" bordercolor="#666666" borderopacity="1.0" inkscape:pageopacity="0.0" inkscape:pageshadow="2" inkscape:zoom="1.572" inkscape:cx="13.34" inkscape:cy="258.4" inkscape:document-units="px" inkscape:current-layer="layer1" showgrid="false" fit-margin-top="0" fit-margin-left="0" fit-margin-bottom="0" fit-margin-right="0" units="px" borderlayer="true" />
  <metadata id="metadata4226">
    <rdf:RDF>
      <cc:Work rdf:about="">
        <dc:format>image/svg+xml</dc:format>
        <dc:type rdf:resource="http://purl.org/dc/dcmitype/StillImage" />
        <dc:title></dc:title>
      </cc:Work>
    </rdf:RDF>
  </metadata>
  <g inkscape:label="Layer 1" inkscape:groupmode="layer" id="layer1" transform="translate(30.86,-430.5)">
    <rect style="color:#000000;fill:#ffffff;fill-opacity:1;fill-rule:nonzero;stroke:none;stroke-width:2;marker:none;visibility:visible;display:inline;overflow:visible;enable-background:accumulate" id="rect4916" width="273" height="529.2" x="-30.86" y="430.5" />
    <g style="display:inline" transform="translate(-696.5,-1196)" id="g18504-7">
      <path style="fill:none;stroke:#dba981;stroke-width:5.4719;stroke-linecap:round;stroke-linejoin:miter;stroke-miterlimit:4;stroke-opacity:1;stroke-dasharray:none" d="m 737.1,2024 c 3,-21 -7,-40 -11,-61 c -3,-13 -2,-30 -8,-43 c -10,-26 -25,-62 -8,-88 c 8,-10 37,-11 57,-22 c 8,-8 7,-20 5,-31 c 24,7 31,7 55,-1 c -11,44 48,34 65,55 c 21,30 3,62 -8,87 c -6,13 -6,30 -8,43 c -4,21 -14,40 -11,61" id="path11116-9-7-3-3-4-3" inkscape:connector-curvature="0" sodipodi:nodetypes="ccccccccccc" />
      <path sodipodi:nodetypes="cc" inkscape:connector-curvature="0" id="path8584-1-4-6-3-4-4-4-4-7-8-0-8" d="m 889.1,1908 c -6,-2 -36,7 -4,-81" style="fill:none;stroke:#dba981;stroke-width:5.4721;stroke-linecap:round;stroke-linejoin:miter;stroke-miterlimit:4;stroke-opacity:1;stroke-dasharray:none" />
      <path sodipodi:nodetypes="cc" inkscape:connector-curvature="0" id="path8584-6-7-8-0-3-1-3-3-1-1-6-3-3" d="m 715.1,1907 c 5,-2 37,7 5,-81" style="fill:none;stroke:#dba981;stroke-width:5.4721;stroke-linecap:round;stroke-linejoin:miter;stroke-miterlimit:4;stroke-opacity:1;stroke-dasharray:none" />
      <path sodipodi:nodetypes="cc" inkscape:connector-curvature="0" id="path3992-4-77-9-5-7-1-2-90-1-4-0-5" d="m 769.1,1809 c 14,11 63,7 64,-2" style="fill:none;stroke:#dba981;stroke-width:2;stroke-linecap:round;stroke-linejoin:miter;stroke-miterlimit:4;stroke-opacity:1;stroke-dasharray:6, 2;stroke-dashoffset:0" />
      <path sodipodi:nodetypes="csc" inkscape:connector-curvature="0" id="path3992-4-77-9-5-7-1-2-9-4-0-3-9-0" d="m 719.1,1913 c 19,0 16,-25 83,-27 c 70,-1 62,27 86,27" style="fill:none;stroke:#dba981;stroke-width:2;stroke-linecap:round;stroke-linejoin:miter;stroke-miterlimit:4;stroke-opacity:1;stroke-dasharray:6, 2;stroke-dashoffset:0" />
      <path sodipodi:nodetypes="cc" inkscape:connector-curvature="0" id="path3992-4-77-9-5-7-1-2-9-8-5-7-2-7-5" d="m 722.1,1925 l 161,0" style="fill:none;stroke:#dba981;stroke-width:2;stroke-linecap:round;stroke-linejoin:miter;stroke-miterlimit:4;stroke-opacity:1;stroke-dasharray:6, 2;stroke-dashoffset:0" />
      <path sodipodi:nodetypes="cc" inkscape:connector-curvature="0" id="path3992-4-77-9-5-7-1-2-9-8-8-6-68-0-6-13" d="m 738.1,2022 l 129,1" style="fill:none;stroke:#dba981;stroke-width:2;stroke-linecap:round;stroke-linejoin:miter;stroke-miterlimit:4;stroke-opacity:1;stroke-dasharray:6, 2;stroke-dashoffset:0" />
      <path style="fill:none;stroke:#dba981;stroke-width:2;stroke-linecap:round;stroke-linejoin:miter;stroke-miterlimit:4;stroke-opacity:1;stroke-dasharray:6, 2;stroke-dashoffset:0" d="m 724.1,1949 l 154,1" id="path3992-4-77-9-5-7-1-2-9-8-5-4-1-4-8-7-8" inkscape:connector-curvature="0" sodipodi:nodetypes="cc" />
      <path sodipodi:nodetypes="cc" style="fill:none;stroke:#000000;stroke-width:3;stroke-linecap:round;stroke-linejoin:miter;stroke-miterlimit:4;stroke-opacity:1;stroke-dasharray:none" d="m 712.7,1909 l 25.4,112" id="path4864-7-25-8-43" inkscape:connector-curvature="0" />
    </g>
  </g>
</svg>
