<?xml version="1.0" encoding="UTF-8" standalone="no"?>
<!-- Created with Inkscape (http://www.inkscape.org/) -->

<svg xmlns:dc="http://purl.org/dc/elements/1.1/" xmlns:cc="http://creativecommons.org/ns#" xmlns:rdf="http://www.w3.org/1999/02/22-rdf-syntax-ns#" xmlns:svg="http://www.w3.org/2000/svg" xmlns="http://www.w3.org/2000/svg" xmlns:sodipodi="http://sodipodi.sourceforge.net/DTD/sodipodi-0.dtd" xmlns:inkscape="http://www.inkscape.org/namespaces/inkscape" width="275" height="531.2" id="svg4221" version="1.1" inkscape:version="0.48.4 r9939" sodipodi:docname="bust_arc_b.svg" inkscape:export-filename="/home/susan/Documents/Valentina/Measurements/Database/images/A1.png" inkscape:export-xdpi="96" inkscape:export-ydpi="96">
  <defs id="defs4223" />
  <sodipodi:namedview id="base" pagecolor="#ffffff" bordercolor="#666666" borderopacity="1.0" inkscape:pageopacity="0.0" inkscape:pageshadow="2" inkscape:zoom="1.572" inkscape:cx="98.8" inkscape:cy="264.6" inkscape:document-units="px" inkscape:current-layer="layer1" showgrid="false" fit-margin-top="0" fit-margin-left="0" fit-margin-bottom="0" fit-margin-right="0" units="px" borderlayer="true" />
  <metadata id="metadata4226">
    <rdf:RDF>
      <cc:Work rdf:about="">
        <dc:format>image/svg+xml</dc:format>
        <dc:type rdf:resource="http://purl.org/dc/dcmitype/StillImage" />
        <dc:title />
      </cc:Work>
    </rdf:RDF>
  </metadata>
  <g inkscape:label="Layer 1" inkscape:groupmode="layer" id="layer1" transform="translate(1.231,-435.2)">
    <rect style="color:#000000;fill:#ffffff;fill-opacity:1;fill-rule:nonzero;stroke:none;stroke-width:2;stroke-linecap:butt;stroke-linejoin:round;stroke-miterlimit:4;stroke-opacity:1;stroke-dasharray:6, 2;stroke-dashoffset:0;marker:none;visibility:visible;display:inline;overflow:visible;enable-background:accumulate" id="rect4916" width="273" height="529.2" x="1.195" y="0.5973" transform="translate(-1.426,435.6)" />
    <path inkscape:connector-curvature="0" id="path4178" d="m 47,888.8 c -1,-18.2 1,-36.5 3,-54.6 c 2,-16.4 4,-32.8 9,-48.7 c 2,-8.8 9,-16.6 10,-25.7 C 70,748.5 67,737 65,725.9 c -1,-7.6 -4,-15 -6,-22.3 C 54,689.3 44,673.7 44,661 c 1,-12.5 0,-12.6 4,-25.1 c 1,-6 0,-25 -2,-35.4 c -3,-10.3 6,-20 10,-20.9 c 11,-2.1 26,-8.9 35,-16.1 c 8,-7.3 10,-15 7,-33.8 c -1,-9.1 16,-11.9 26,-14.1 c 10,-2.4 24,-5.4 32,1.5 c 8,6.7 0,21.9 6,30 c 11,13.8 36,19.8 46,24.1 c 15,6.9 15,12.3 17,21 c 4,20.5 -9,44.2 -16,61.1 c -6,13.6 -10,27.7 -14,41.8 c -2,8 -4,16 -5,24.1 c -3,13.9 -10,28.1 -7,41.9 c 3,11.8 15,21.4 21,29.6 c 8,11.3 14,24.6 18,37.9 c 4,18 5,36.9 5,55.5" style="fill:none;stroke:#dba981;stroke-width:4.5;stroke-linecap:round;stroke-linejoin:miter;stroke-miterlimit:4;stroke-opacity:1;stroke-dasharray:none" />
    <path sodipodi:nodetypes="csc" inkscape:connector-curvature="0" id="path2989-9-1-3-4" d="m 67,654.1 c 5,42 24,68.1 20,103.7 c -2,19.5 -17,28.8 -19,111.5" style="fill:none;stroke:#dba981;stroke-width:2.5;stroke-linecap:round;stroke-linejoin:miter;stroke-miterlimit:4;stroke-opacity:1;stroke-dasharray:7.5, 2.5;stroke-dashoffset:0" />
    <path style="fill:none;stroke:#dba981;stroke-width:4.5;stroke-linecap:round;stroke-linejoin:miter;stroke-miterlimit:4;stroke-opacity:1;stroke-dasharray:none" d="m 47,638.9 c 0,0 3,13.4 9,16.1 c 3,0.9 6,0 9,-1.8 c 7,-6.3 9,-17.9 10,-28.6 c 0,-7.2 -3,-15.2 -6,-22.4 C 67,595 59,580.7 59,580.7" id="path6792-8" inkscape:connector-curvature="0" sodipodi:nodetypes="caaaac" />
    <path sodipodi:nodetypes="cac" inkscape:connector-curvature="0" id="path3992-4-9-6-4-9-2" d="m 105,524.2 c 2,10.8 5,19.9 0,28.3 c -6,12.7 -23,21.1 -35,24.2" style="fill:none;stroke:#dba981;stroke-width:2.5;stroke-linecap:round;stroke-linejoin:miter;stroke-miterlimit:4;stroke-opacity:1;stroke-dasharray:7.5, 2.5;stroke-dashoffset:0" />
    <path style="fill:none;stroke:#7dc832;stroke-width:3;stroke-linecap:round;stroke-linejoin:miter;stroke-miterlimit:4;stroke-opacity:1;stroke-dasharray:none" d="m 72,674.9 c 54,7.1 128,6.2 130,-3.2" id="path3878-7-3-5" inkscape:connector-curvature="0" sodipodi:nodetypes="cc" />
  </g>
</svg>
