<?xml version="1.0" encoding="UTF-8" standalone="no"?>
<!-- Created with Inkscape (http://www.inkscape.org/) -->

<svg xmlns:dc="http://purl.org/dc/elements/1.1/" xmlns:cc="http://creativecommons.org/ns#" xmlns:rdf="http://www.w3.org/1999/02/22-rdf-syntax-ns#" xmlns:svg="http://www.w3.org/2000/svg" xmlns="http://www.w3.org/2000/svg" xmlns:sodipodi="http://sodipodi.sourceforge.net/DTD/sodipodi-0.dtd" xmlns:inkscape="http://www.inkscape.org/namespaces/inkscape" width="273" height="529.2" id="svg4221" version="1.1" inkscape:version="0.48.4 r9939" sodipodi:docname="height_neck_back_to_knee.svg" inkscape:export-filename="/home/susan/Documents/Valentina/Measurements/Database/images/A1.png" inkscape:export-xdpi="96" inkscape:export-ydpi="96">
  <defs id="defs4223" />
  <sodipodi:namedview id="base" pagecolor="#ffffff" bordercolor="#666666" borderopacity="1.0" inkscape:pageopacity="0.0" inkscape:pageshadow="2" inkscape:zoom="4.406" inkscape:cx="142" inkscape:cy="336.3" inkscape:document-units="px" inkscape:current-layer="layer2" showgrid="false" fit-margin-top="0" fit-margin-left="0" fit-margin-bottom="0" fit-margin-right="0" units="px" borderlayer="true" />
  <metadata id="metadata4226">
    <rdf:RDF>
      <cc:Work rdf:about="">
        <dc:format>image/svg+xml</dc:format>
        <dc:type rdf:resource="http://purl.org/dc/dcmitype/StillImage" />
        <dc:title></dc:title>
      </cc:Work>
    </rdf:RDF>
  </metadata>
  <g inkscape:groupmode="layer" id="layer2" inkscape:label="Base">
    <rect transform="translate(18.39,-436.2)" style="display:inline;color:#000000;fill:#ffffff;fill-opacity:1;fill-rule:nonzero;stroke:none;stroke-width:2;marker:none;visibility:visible;overflow:visible;enable-background:accumulate" id="rect4916" width="273" height="529.2" x="-18.39" y="436.2" />
  </g>
  <g inkscape:label="Graphics" inkscape:groupmode="layer" id="layer1" transform="translate(18.39,-436.2)" style="display:inline">
    <path style="fill:none;stroke:#dba981;stroke-width:2;stroke-linecap:butt;stroke-linejoin:miter;stroke-miterlimit:4;stroke-opacity:1;stroke-dasharray:6, 2;stroke-dashoffset:0" d="m 62.99,536.3 l 45.91,0.3" id="path3833-4-0-8-2-6-1-7" inkscape:connector-curvature="0" sodipodi:nodetypes="cc" />
    <path style="fill:none;stroke:#dba981;stroke-width:2;stroke-linecap:butt;stroke-linejoin:miter;stroke-miterlimit:4;stroke-opacity:1;stroke-dasharray:6, 2;stroke-dashoffset:0;display:inline" d="m 62.29,797.6 l 31.52,-0.1" id="path3833-4-0-8-2-6-1-7-3" inkscape:connector-curvature="0" sodipodi:nodetypes="cc" />
    <path sodipodi:nodetypes="cscccccccccscaaccsscssssccscccccscsccccccccccccsscccccacc" inkscape:connector-curvature="0" d="m 112,881.5 c 1.5,-11.2 2.5,-20.9 3.5,-39.2 c 0.6,-9.1 2,-22.5 3.5,-30.1 c 1,-5.6 4.7,-13.1 6.2,-18.2 c 3,-8.1 3.6,-6 5.6,-14.1 c 5.1,-17.8 8.2,-35.1 9.7,-52.8 c 1.1,-10.2 0.4,-19.9 1,-29.5 c 1,-10.7 7.1,-20.8 7.6,-31.5 c 0,-5.1 -2.6,-9.6 -2.1,-14.7 c 0,-5.6 2.5,-13.2 2.6,-19.8 c 0.1,-5.3 -2.6,-11.7 -1.5,-15.8 c 4.5,-4 8.6,-10.6 8.6,-17.2 c 0,-2.3 -7.6,-15.3 -9.7,-18.8 c -1,-3.1 -12.2,-20.2 -13.7,-31.5 c -0.3,-2.4 0.4,-4.8 1,-7.1 c 0.8,-3.1 0.6,-7 3.2,-9.1 c 3,-3 13.1,-0.1 15.6,-1.6 c 1,-0.5 1.6,-1.5 2.1,-2.5 c 0.5,-1.1 0.5,-2.1 0.5,-3.6 c 0,-0.5 -0.5,-1.5 0,-2 c 0,-0.5 1,-1 1,-1.6 c 0,-0.5 -1,-1 -1,-2 c 0,-0.5 1,-0.5 1,-1 c 0,-1 -1,-2.5 -0.5,-3.6 c 0.5,-1 2,-1 3,-2 c 0.5,-1 1.6,-1.5 1,-3 c -2,-2.1 -5.5,-4.1 -6.6,-7.1 c -0.5,-1.6 0,-3.6 0,-5.1 c -0.5,-3.1 -0.7,-6.6 -2,-9.7 c -1,-2.2 -2.5,-4 -4.1,-6.1 c -1,-0.5 -1.3,-1.1 -2,-1.5 c -4.2,-2.4 -8.5,-4.7 -13.2,-5.6 C 126,473 118.6,473.5 113,476.7 c -14.72,8.3 -13.55,30.6 -4.1,46.2 c 1.6,2 1.4,4.7 1.4,6.7 c 0,3.5 -1.9,8.5 -2.9,10 C 96.96,558 94.22,567.5 92.69,582.5 c -0.61,6.1 1.07,12.3 2.39,18.3 c 1.57,7.3 5.32,16.1 6.52,21.5 c 1.6,5.6 3.8,19.9 3.3,25.5 c -4.2,17.2 -17.18,34.7 -18.51,45.8 c -1.06,10.1 9.35,32.4 9.35,32.4 c 0,0 -0.51,32.5 -1.02,47.8 c -0.5,9.1 0.72,15.1 -0.3,23.8 c -0.51,3 -2.24,8.2 -2.74,10.7 c -1.53,8.1 -5.59,16.3 -6.1,24.4 c -1.52,19.3 9.09,33.9 9.4,52.4 c 0.3,2.7 -2.69,10.4 -2.69,14.5 c 0,3 -1.53,6.6 0,8.6 c 1.52,2.1 4.06,2.6 6.09,3.1 c 2.52,1 5.12,1 7.62,2 c 6.1,1.5 12.2,4.6 18.8,5.6 c 3,0.5 6.1,0.5 8.6,0 c 4.6,-0.5 11.7,0.5 13.2,-4.1 c 0.5,-3 -4.1,-4.7 -6.6,-6.6 c -8.6,-6.6 -23.2,-8.9 -28.2,-16.4 c -1.3,-2.7 -0.3,-5.3 0.2,-10.3 z" style="fill:none;stroke:#dba981;stroke-width:2.7254;stroke-linecap:round;stroke-linejoin:miter;stroke-miterlimit:4;stroke-opacity:1;stroke-dasharray:none" id="path8572-85" />
    <path style="fill:none;stroke:#dba981;stroke-width:1.0158;stroke-linecap:round;stroke-linejoin:round;stroke-miterlimit:4;stroke-opacity:1;stroke-dasharray:2.0316, 1.0158;stroke-dashoffset:0" d="m 132.2,547.5 c -6.6,1.5 -8.6,-2.5 -12.2,-4.6 c -4,-2 -6.3,-6.5 -11.2,-6.6" id="path3992-4-65-7-6" inkscape:connector-curvature="0" sodipodi:nodetypes="cac" />
    <path style="fill:none;stroke:#dba981;stroke-width:2.7253;stroke-linecap:round;stroke-linejoin:miter;stroke-miterlimit:4;stroke-opacity:1;stroke-dasharray:none" d="m 109.7,561.7 c -0.6,21.3 3,28.9 10.6,29.4 c 8.7,0.5 11.2,-10.1 10.2,-24.8 c 0,-3.6 0.5,-13.8 -9.2,-12.7 c -7.6,0.5 -11.6,3 -11.6,8.1 z" id="path3009-6-3-6-8" inkscape:connector-curvature="0" sodipodi:nodetypes="ssscs" />
    <path style="fill:none;stroke:#dba981;stroke-width:1.0158;stroke-linecap:round;stroke-linejoin:round;stroke-miterlimit:4;stroke-opacity:1;stroke-dasharray:2.0316, 1.0158;stroke-dashoffset:0" d="m 120.2,543.4 c 0.5,2.6 0.5,3 -1,9.6" id="path3992-4-9-7-2-2" inkscape:connector-curvature="0" sodipodi:nodetypes="cc" />
    <path style="fill:none;stroke:#dba981;stroke-width:1.0158;stroke-linecap:round;stroke-linejoin:round;stroke-miterlimit:4;stroke-opacity:1;stroke-dasharray:2.0316, 1.0158;stroke-dashoffset:0;display:inline" d="m 121.4,591.1 l 0.5,95.2" id="path3992-4-9-7-2-2-7" inkscape:connector-curvature="0" sodipodi:nodetypes="cc" />
    <path sodipodi:nodetypes="cc" inkscape:connector-curvature="0" id="path7494-1-6-3-5-8-3-9-5-7-4-2-5" d="M 62.82,797.9 L 62.6,535.9" style="fill:none;stroke:#7dc832;stroke-width:2;stroke-linecap:round;stroke-linejoin:miter;stroke-miterlimit:4;stroke-opacity:1;stroke-dasharray:none;marker-start:url(#marker7359);marker-end:url(#marker7359)" />
  </g>
</svg>
