<?xml version="1.0" encoding="UTF-8" standalone="no"?>
<!-- Created with Inkscape (http://www.inkscape.org/) -->

<svg xmlns:dc="http://purl.org/dc/elements/1.1/" xmlns:cc="http://creativecommons.org/ns#" xmlns:rdf="http://www.w3.org/1999/02/22-rdf-syntax-ns#" xmlns:svg="http://www.w3.org/2000/svg" xmlns="http://www.w3.org/2000/svg" xmlns:sodipodi="http://sodipodi.sourceforge.net/DTD/sodipodi-0.dtd" xmlns:inkscape="http://www.inkscape.org/namespaces/inkscape" width="275" height="531.2" id="svg4221" version="1.1" inkscape:version="0.48.4 r9939" sodipodi:docname="highhip_arc_half_b.svg" inkscape:export-filename="/home/susan/Documents/Valentina/Measurements/Database/images/A1.png" inkscape:export-xdpi="96" inkscape:export-ydpi="96">
  <defs id="defs4223" />
  <sodipodi:namedview id="base" pagecolor="#ffffff" bordercolor="#666666" borderopacity="1.0" inkscape:pageopacity="0.0" inkscape:pageshadow="2" inkscape:zoom="3.125" inkscape:cx="66.32" inkscape:cy="264.6" inkscape:document-units="px" inkscape:current-layer="layer1" showgrid="false" fit-margin-top="0" fit-margin-left="0" fit-margin-bottom="0" fit-margin-right="0" units="px" borderlayer="true" />
  <metadata id="metadata4226">
    <rdf:RDF>
      <cc:Work rdf:about="">
        <dc:format>image/svg+xml</dc:format>
        <dc:type rdf:resource="http://purl.org/dc/dcmitype/StillImage" />
        <dc:title />
      </cc:Work>
    </rdf:RDF>
  </metadata>
  <g inkscape:label="Layer 1" inkscape:groupmode="layer" id="layer1" transform="translate(1.231,-435.2)">
    <rect style="color:#000000;fill:#ffffff;fill-opacity:1;fill-rule:nonzero;stroke:none;stroke-width:2;stroke-linecap:butt;stroke-linejoin:round;stroke-miterlimit:4;stroke-opacity:1;stroke-dasharray:6, 2;stroke-dashoffset:0;marker:none;visibility:visible;display:inline;overflow:visible;enable-background:accumulate" id="rect4916" width="273" height="529.2" x="1.195" y="0.5973" transform="translate(-1.426,435.6)" />
    <g style="display:inline" transform="matrix(0.8062,0,0,0.8062,-285.8,340.7)" id="g10468">
      <path style="fill:none;stroke:#dba981;stroke-width:1.489;stroke-linecap:round;stroke-linejoin:miter;stroke-miterlimit:4;stroke-opacity:1;stroke-dasharray:4.467, 1.489;stroke-dashoffset:0" d="m 529.2,259.3 c 0.5,2.7 1.5,11.8 2.2,29.1 c 6.6,36.1 26.5,55.8 24,120.9 c -0.5,32.3 -11.6,75.3 -8.3,95.7 c 5.8,35.3 27.2,52 26.5,105.4" id="path3992-4-9-6-4-9-2-9" inkscape:connector-curvature="0" sodipodi:nodetypes="cccsc" />
      <path sodipodi:nodetypes="cccccccccccccccccaacccc" style="fill:none;stroke:#dba981;stroke-width:3.721;stroke-linecap:round;stroke-linejoin:miter;stroke-miterlimit:4;stroke-opacity:1;stroke-dasharray:none" d="m 435,634.6 c -1,-18.2 1,-36.5 3,-54.6 c 2,-16.4 4,-32.8 9,-48.7 c 2,-8.8 9,-16.6 10,-25.7 c 1,-11.3 -2,-22.8 -4,-33.9 c -1,-7.6 -4,-15 -6,-22.3 c -5,-14.3 -15,-29.9 -15,-42.6 c 1,-12.5 0,-12.6 4,-25.1 c 1,-6 0,-25 -2,-35.4 c -3,-10.3 6,-20 10,-20.9 c 11,-2.1 26,-8.9 35,-16.1 c 8,-7.3 10,-15 7,-33.8 c -1,-9.1 16,-11.9 26,-14.1 c 10,-2.4 24,-5.4 32,1.5 c 8,6.7 0,21.9 6,30 c 11,13.8 36,19.8 46,24.1 c 15,6.9 15,12.3 17,21 c 4,20.5 -10,40.9 -16,61.1 c -4.2,14.1 -10.3,27.6 -14,41.8 c -5.6,21.7 -14.9,50.7 -12,66 c 3,11.8 15,21.4 21,29.6 c 8,11.3 14,24.6 18,37.9 c 4,18 5,36.9 5,55.5" id="path4178-3" inkscape:connector-curvature="0" />
      <path style="fill:none;stroke:#dba981;stroke-width:1.489;stroke-linecap:round;stroke-linejoin:miter;stroke-miterlimit:4;stroke-opacity:1;stroke-dasharray:4.467, 1.489;stroke-dashoffset:0" d="m 455,399.9 c 5,42 24,68.1 20,103.7 c -2,19.5 -17,28.8 -19,111.5" id="path2989-9-1-3-4-8" inkscape:connector-curvature="0" sodipodi:nodetypes="csc" />
      <path sodipodi:nodetypes="caaaac" inkscape:connector-curvature="0" id="path6792-8-3" d="m 435,384.7 c 0,0 3,13.4 9,16.1 c 3,0.9 6.8,0.3 9,-1.8 c 6.8,-6.6 5.8,-18.2 6.4,-27.6 c 0.5,-7.8 -0.3,-15.8 -2.4,-23.4 c -2.1,-7.6 -10,-21.5 -10,-21.5" style="fill:none;stroke:#dba981;stroke-width:3.721;stroke-linecap:round;stroke-linejoin:miter;stroke-miterlimit:4;stroke-opacity:1;stroke-dasharray:none" />
      <path style="fill:none;stroke:#dba981;stroke-width:1.489;stroke-linecap:round;stroke-linejoin:miter;stroke-miterlimit:4;stroke-opacity:1;stroke-dasharray:4.467, 1.489;stroke-dashoffset:0" d="m 493,270 c 2,10.8 5,19.9 0,28.3 c -6,12.7 -23,21.1 -35,24.2" id="path3992-4-9-6-4-9-2-4" inkscape:connector-curvature="0" sodipodi:nodetypes="cac" />
      <path sodipodi:nodetypes="cc" inkscape:connector-curvature="0" id="path3878-7-3-6-5" d="m 462.9,546 c 20,3.2 41.9,7.8 97.2,-1.6" style="fill:none;stroke:#7dc832;stroke-width:3;stroke-linecap:round;stroke-linejoin:miter;stroke-miterlimit:4;stroke-opacity:1;stroke-dasharray:none" />
    </g>
  </g>
</svg>
