<?xml version="1.0" encoding="UTF-8" standalone="no"?>
<!-- Created with Inkscape (http://www.inkscape.org/) -->

<svg xmlns:dc="http://purl.org/dc/elements/1.1/" xmlns:cc="http://creativecommons.org/ns#" xmlns:rdf="http://www.w3.org/1999/02/22-rdf-syntax-ns#" xmlns:svg="http://www.w3.org/2000/svg" xmlns="http://www.w3.org/2000/svg" xmlns:sodipodi="http://sodipodi.sourceforge.net/DTD/sodipodi-0.dtd" xmlns:inkscape="http://www.inkscape.org/namespaces/inkscape" width="275" height="531.2" id="svg4221" version="1.1" inkscape:version="0.48.4 r9939" sodipodi:docname="highbust_arc_f.svg" inkscape:export-filename="/home/susan/Documents/Valentina/Measurements/Database/images/A1.png" inkscape:export-xdpi="96" inkscape:export-ydpi="96">
  <defs id="defs4223" />
  <sodipodi:namedview id="base" pagecolor="#ffffff" bordercolor="#666666" borderopacity="1.0" inkscape:pageopacity="0.0" inkscape:pageshadow="2" inkscape:zoom="1.572" inkscape:cx="2.62" inkscape:cy="264.6" inkscape:document-units="px" inkscape:current-layer="layer1" showgrid="false" fit-margin-top="0" fit-margin-left="0" fit-margin-bottom="0" fit-margin-right="0" units="px" borderlayer="true" />
  <metadata id="metadata4226">
    <rdf:RDF>
      <cc:Work rdf:about="">
        <dc:format>image/svg+xml</dc:format>
        <dc:type rdf:resource="http://purl.org/dc/dcmitype/StillImage" />
        <dc:title />
      </cc:Work>
    </rdf:RDF>
  </metadata>
  <g inkscape:label="Layer 1" inkscape:groupmode="layer" id="layer1" transform="translate(1.231,-435.2)">
    <rect style="color:#000000;fill:#ffffff;fill-opacity:1;fill-rule:nonzero;stroke:none;stroke-width:2;stroke-linecap:butt;stroke-linejoin:round;stroke-miterlimit:4;stroke-opacity:1;stroke-dasharray:6, 2;stroke-dashoffset:0;marker:none;visibility:visible;display:inline;overflow:visible;enable-background:accumulate" id="rect4916" width="273" height="529.2" x="1.195" y="0.5973" transform="translate(-1.426,435.6)" />
    <path style="fill:none;stroke:#dba981;stroke-width:0.8943;stroke-linecap:round;stroke-linejoin:miter;stroke-miterlimit:4;stroke-opacity:1;stroke-dasharray:2.6829, 0.8943;stroke-dashoffset:0" d="m 206.1,649.6 c -4,2 -16,0 -24,-2 c -12,-4 -23,-13 -36,-17 c -13,-3 -24,-1 -41,-3 c -13,-1 -25,0 -38,3 c -4,1 -11,4 -11,4" id="path3817-6-4" inkscape:connector-curvature="0" sodipodi:nodetypes="caasac" />
    <path sodipodi:nodetypes="ccaac" inkscape:connector-curvature="0" id="path3868-7-7-4" d="m 53.1,638.6 c 0,0 9,-6 14,-8 c 13,-3 26,-3 39,-3 c 12,0 25,0 37,3 c 19,5 42,22 54,23" style="fill:none;stroke:#000000;stroke-width:3;stroke-linecap:round;stroke-linejoin:miter;stroke-miterlimit:4;stroke-opacity:1;stroke-dasharray:none" />
    <path style="fill:none;stroke:#dba981;stroke-width:4.5;stroke-linecap:round;stroke-linejoin:miter;stroke-miterlimit:4;stroke-opacity:1;stroke-dasharray:none" d="m 211.1,568.6 c -15,4 -19,9 -24,18 c -9,16 -18,40 -7,55 c 6,8 24,13 30,5" id="path3009-0-7" inkscape:connector-curvature="0" sodipodi:nodetypes="caac" />
    <path style="fill:none;stroke:#dba981;stroke-width:4.5;stroke-linecap:round;stroke-linejoin:miter;stroke-miterlimit:4;stroke-opacity:1;stroke-dasharray:none" d="m 99.1,522.6 c 0,0 11,5 17,5 c 33,2 41,-9 41,-9" id="path3011-2-2" inkscape:connector-curvature="0" sodipodi:nodetypes="csc" />
    <path sodipodi:nodetypes="cac" inkscape:connector-curvature="0" id="path3992-4-9-6-1-0-0" d="m 150.1,525.6 c 3,10 0,17 5,23 c 10,13 31,17 44,20" style="fill:none;stroke:#dba981;stroke-width:2;stroke-linecap:round;stroke-linejoin:miter;stroke-miterlimit:4;stroke-opacity:1;stroke-dasharray:6, 2;stroke-dashoffset:0" />
    <g id="g14224" style="stroke-linecap:round" transform="translate(-1129,383)">
      <path style="fill:none;stroke:#dba981;stroke-width:4.5;stroke-linecap:round;stroke-linejoin:round;stroke-miterlimit:4;stroke-opacity:1;stroke-dasharray:none" d="m 1178,504 c -2,-28.4 -2,-38.6 0,-57.7 c 2,-16.4 5,-32.7 9,-48.5 c 3,-8.9 9,-16.7 10,-25.8 c 2,-13.3 -2,-26.8 -3,-40.2 c 0,-6.2 2,-10.8 0,-18.4 c -9,-8.2 -17,-27.5 -17,-40.2 c 0,-12.5 8,-20.5 11,-33 c 2,-6 -6,-14.8 -8,-25.1 c -3,-10.4 0,-22.4 5,-23.3 c 10,-2.1 26,-8.9 35,-16.2 c 8,-7.2 7,-37.3 7,-37.3 c 0,0 1,-5.3 17,-6.5 c 15,-1.1 43,2.4 43,2.4 c 0,0 -2,16.9 4,25.1 c 11,13.7 36,19.7 46,24.2 c 15,6.8 14,12.2 16,20.8 c 4,20.6 -8,44.3 -15,61.2 c -6,13.6 -6,29.1 -10,43.4 c -3,8.6 -6,16.9 -9,25.6 c -2,8.9 -5,17.8 -4,27 c 0,12.1 4,24.5 10,35 c 6,11 16,31 20,47.5 c 5,15.6 6,31.7 7,47.8" id="path4174" inkscape:connector-curvature="0" sodipodi:nodetypes="ccccccscccccscccaccccccc" />
    </g>
    <path style="fill:none;stroke:#dba981;stroke-width:2.5;stroke-linecap:round;stroke-linejoin:miter;stroke-miterlimit:4;stroke-opacity:1;stroke-dasharray:7.5, 2.5;stroke-dashoffset:0" d="m 196.4,654 c 2,3 -6,45 -14.1,66 c -4,11 -8,20 -7,31 c 1,12.9 7,24.9 13.1,37 c 11,22 22,71 19,71" id="path2993-6-7" inkscape:connector-curvature="0" sodipodi:nodetypes="csasc" />
  </g>
</svg>
