<?xml version="1.0" encoding="UTF-8" standalone="no"?>
<!-- Created with Inkscape (http://www.inkscape.org/) -->

<svg xmlns:dc="http://purl.org/dc/elements/1.1/" xmlns:cc="http://creativecommons.org/ns#" xmlns:rdf="http://www.w3.org/1999/02/22-rdf-syntax-ns#" xmlns:svg="http://www.w3.org/2000/svg" xmlns="http://www.w3.org/2000/svg" xmlns:sodipodi="http://sodipodi.sourceforge.net/DTD/sodipodi-0.dtd" xmlns:inkscape="http://www.inkscape.org/namespaces/inkscape" width="273" height="529.2" id="svg4221" version="1.1" inkscape:version="0.48.4 r9939" sodipodi:docname="J06.svg" inkscape:export-filename="/home/susan/Documents/Valentina/Measurements/Database/images/A1.png" inkscape:export-xdpi="96" inkscape:export-ydpi="96">
  <defs id="defs4223">
    <marker inkscape:stockid="Arrow2Mend" orient="auto" refY="0" refX="0" id="marker18919" style="overflow:visible">
      <path id="path18921" style="fill-rule:evenodd;stroke-width:0.625;stroke-linejoin:round" d="M 8.719,4.034 L -2.207,0.016 L 8.719,-4.002 c -1.746,2.372 -1.736,5.618 0,8.036 z" transform="scale(-0.6,-0.6)" inkscape:connector-curvature="0" />
    </marker>
    <marker inkscape:stockid="Arrow2Mend" orient="auto" refY="0" refX="0" id="marker5153" style="overflow:visible">
      <path id="path5155" style="fill-rule:evenodd;stroke-width:0.625;stroke-linejoin:round" d="M 8.719,4.034 L -2.207,0.016 L 8.719,-4.002 c -1.746,2.372 -1.736,5.618 0,8.036 z" transform="scale(-0.6,-0.6)" inkscape:connector-curvature="0" />
    </marker>
    <marker inkscape:stockid="Arrow2Mend" orient="auto" refY="0" refX="0" id="marker17459" style="overflow:visible">
      <path id="path17461" style="fill-rule:evenodd;stroke-width:0.625;stroke-linejoin:round" d="M 8.719,4.034 L -2.207,0.016 L 8.719,-4.002 c -1.746,2.372 -1.736,5.618 0,8.036 z" transform="scale(-0.6,-0.6)" inkscape:connector-curvature="0" />
    </marker>
    <marker inkscape:stockid="Arrow2Mend" orient="auto" refY="0" refX="0" id="marker5153-6" style="overflow:visible">
      <path id="path5155-1" style="fill-rule:evenodd;stroke-width:0.625;stroke-linejoin:round" d="M 8.719,4.034 L -2.207,0.016 L 8.719,-4.002 c -1.746,2.372 -1.736,5.618 0,8.036 z" transform="scale(-0.6,-0.6)" inkscape:connector-curvature="0" />
    </marker>
    <marker inkscape:stockid="Arrow2Mend" orient="auto" refY="0" refX="0" id="marker17770" style="overflow:visible">
      <path id="path17772" style="fill-rule:evenodd;stroke-width:0.625;stroke-linejoin:round" d="M 8.719,4.034 L -2.207,0.016 L 8.719,-4.002 c -1.746,2.372 -1.736,5.618 0,8.036 z" transform="scale(-0.6,-0.6)" inkscape:connector-curvature="0" />
    </marker>
  </defs>
  <sodipodi:namedview id="base" pagecolor="#ffffff" bordercolor="#666666" borderopacity="1.0" inkscape:pageopacity="0.0" inkscape:pageshadow="2" inkscape:zoom="3.328" inkscape:cx="269.6" inkscape:cy="129.1" inkscape:document-units="px" inkscape:current-layer="layer2" showgrid="false" fit-margin-top="0" fit-margin-left="0" fit-margin-bottom="0" fit-margin-right="0" units="px" borderlayer="true" />
  <metadata id="metadata4226">
    <rdf:RDF>
      <cc:Work rdf:about="">
        <dc:format>image/svg+xml</dc:format>
        <dc:type rdf:resource="http://purl.org/dc/dcmitype/StillImage" />
        <dc:title />
      </cc:Work>
    </rdf:RDF>
  </metadata>
  <g inkscape:groupmode="layer" id="layer2" inkscape:label="Base" transform="translate(33.71,-86.63)">
    <rect style="color:#000000;fill:#ffffff;fill-opacity:1;fill-rule:nonzero;stroke:none;stroke-width:2;marker:none;visibility:visible;display:inline;overflow:visible;enable-background:accumulate" id="rect4916" width="273" height="529.2" x="-33.71" y="86.63" />
    <g style="display:inline" id="g8811" transform="matrix(0.689,0,0,0.689,-338.7,-2752)">
      <path style="fill:none;stroke:#aaaaaa;stroke-width:2;stroke-linecap:round;stroke-linejoin:miter;stroke-miterlimit:4;stroke-opacity:1;stroke-dasharray:4, 4;stroke-dashoffset:0;marker-start:url(#marker7359);marker-end:url(#marker7359)" d="m 615.2,4539 c -2,-19 72,-20 73,0" id="path7494-1-6-3-5-8-3-1-1-8-7-3-2-6" inkscape:connector-curvature="0" sodipodi:nodetypes="cc" />
      <path sodipodi:nodetypes="cc" inkscape:connector-curvature="0" id="path3829-9-1-88-5-3" d="m 733.2,4215 c -35,-1 -72,4 -92,-5" style="fill:none;stroke:#dba981;stroke-width:2;stroke-linecap:round;stroke-linejoin:miter;stroke-miterlimit:4;stroke-opacity:1;stroke-dasharray:6, 2;stroke-dashoffset:0" />
      <path sodipodi:nodetypes="cac" style="fill:none;stroke:#dba981;stroke-width:5.9829;stroke-linecap:round;stroke-linejoin:miter;stroke-miterlimit:4;stroke-opacity:1;stroke-dasharray:none" d="m 721.2,4317 c 2,-23 13,-46 14,-69 c 1,-10 -3,-21 -3,-31" id="path17963-7" inkscape:connector-curvature="0" />
      <path sodipodi:nodetypes="csccaccsacccccccaccsccccc" style="fill:none;stroke:#dba981;stroke-width:5.9829;stroke-linecap:round;stroke-linejoin:miter;stroke-miterlimit:4;stroke-opacity:1;stroke-dasharray:none" d="m 640.2,4205 c -2,14 -9,24 -19,36 c -18,21 -25,53 -24,82 c 0,22 24,62 24,62 c 0,0 -3,65 -4,97 c 0,19 0,44 0,58 c -5,17 -19,52 -20,71 c -3,42 23,72 19,121 c -1,7 -4,20 -4,30 c 0,6 -3,14 1,19 c 3,4 9,5 14,7 c 5,3 10,3 16,4 c 11,3 22,10 35,11 c 17,3 46,0 52,-4 c 5,-3 0,-8 -2,-12 c -4,-5 -13,-6 -17,-9 c -12,-6 -22,-15 -33,-22 c -8,-5 -20,-9 -23,-13 c 0,0 -1,-14 1,-25 c 3,-24 5,-46 7,-86 c 1,-20 1,-40 6,-59 c 1,-9 13,-22 16,-30 c 7,-17 7,-30 11,-48 c 12,-38 25,-76 28,-116 c 1,-22 -5,-42 -3,-65" id="path2997-1-2-9-0-7" inkscape:connector-curvature="0" />
      <path style="fill:none;stroke:#000000;stroke-width:3;stroke-linecap:round;stroke-linejoin:miter;stroke-miterlimit:4;stroke-opacity:1;stroke-dasharray:none;marker-start:url(#marker7359);marker-end:url(#marker7359)" d="m 616.2,4537 c -3,19 72,20 74,0" id="path7494-1-6-3-5-8-3-1-1-8-7-3-2-7-9" inkscape:connector-curvature="0" sodipodi:nodetypes="cc" />
      <path inkscape:connector-curvature="0" id="path7657" d="m 634.2,4743 l -9,8 l 9,6" style="fill:none;stroke:#dba981;stroke-width:3;stroke-linecap:butt;stroke-linejoin:miter;stroke-miterlimit:4;stroke-opacity:1;stroke-dasharray:none" />
    </g>
  </g>
  <g inkscape:label="Graphics" inkscape:groupmode="layer" id="layer1" transform="translate(52.1,-522.8)" style="display:inline" />
</svg>
