<?xml version="1.0" encoding="UTF-8" standalone="no"?>
<!-- Created with Inkscape (http://www.inkscape.org/) -->

<svg xmlns:dc="http://purl.org/dc/elements/1.1/" xmlns:cc="http://creativecommons.org/ns#" xmlns:rdf="http://www.w3.org/1999/02/22-rdf-syntax-ns#" xmlns:svg="http://www.w3.org/2000/svg" xmlns="http://www.w3.org/2000/svg" xmlns:sodipodi="http://sodipodi.sourceforge.net/DTD/sodipodi-0.dtd" xmlns:inkscape="http://www.inkscape.org/namespaces/inkscape" width="273" height="529.2" id="svg4221" version="1.1" inkscape:version="0.48.4 r9939" sodipodi:docname="J10.svg" inkscape:export-filename="/home/susan/Documents/Valentina/Measurements/Database/images/A1.png" inkscape:export-xdpi="96" inkscape:export-ydpi="96">
  <defs id="defs4223">
    <marker inkscape:stockid="Arrow2Mend" orient="auto" refY="0" refX="0" id="marker18919" style="overflow:visible">
      <path id="path18921" style="fill-rule:evenodd;stroke-width:0.625;stroke-linejoin:round" d="M 8.719,4.034 L -2.207,0.016 L 8.719,-4.002 c -1.746,2.372 -1.736,5.618 0,8.036 z" transform="scale(-0.6,-0.6)" inkscape:connector-curvature="0" />
    </marker>
    <marker inkscape:stockid="Arrow2Mend" orient="auto" refY="0" refX="0" id="marker5153" style="overflow:visible">
      <path id="path5155" style="fill-rule:evenodd;stroke-width:0.625;stroke-linejoin:round" d="M 8.719,4.034 L -2.207,0.016 L 8.719,-4.002 c -1.746,2.372 -1.736,5.618 0,8.036 z" transform="scale(-0.6,-0.6)" inkscape:connector-curvature="0" />
    </marker>
    <marker inkscape:stockid="Arrow2Mend" orient="auto" refY="0" refX="0" id="marker17459" style="overflow:visible">
      <path id="path17461" style="fill-rule:evenodd;stroke-width:0.625;stroke-linejoin:round" d="M 8.719,4.034 L -2.207,0.016 L 8.719,-4.002 c -1.746,2.372 -1.736,5.618 0,8.036 z" transform="scale(-0.6,-0.6)" inkscape:connector-curvature="0" />
    </marker>
    <marker inkscape:stockid="Arrow2Mend" orient="auto" refY="0" refX="0" id="marker5153-6" style="overflow:visible">
      <path id="path5155-1" style="fill-rule:evenodd;stroke-width:0.625;stroke-linejoin:round" d="M 8.719,4.034 L -2.207,0.016 L 8.719,-4.002 c -1.746,2.372 -1.736,5.618 0,8.036 z" transform="scale(-0.6,-0.6)" inkscape:connector-curvature="0" />
    </marker>
    <marker inkscape:stockid="Arrow2Mend" orient="auto" refY="0" refX="0" id="marker17770" style="overflow:visible">
      <path id="path17772" style="fill-rule:evenodd;stroke-width:0.625;stroke-linejoin:round" d="M 8.719,4.034 L -2.207,0.016 L 8.719,-4.002 c -1.746,2.372 -1.736,5.618 0,8.036 z" transform="scale(-0.6,-0.6)" inkscape:connector-curvature="0" />
    </marker>
  </defs>
  <sodipodi:namedview id="base" pagecolor="#ffffff" bordercolor="#666666" borderopacity="1.0" inkscape:pageopacity="0.0" inkscape:pageshadow="2" inkscape:zoom="1.674" inkscape:cx="136.5" inkscape:cy="264.6" inkscape:document-units="px" inkscape:current-layer="layer2" showgrid="false" fit-margin-top="0" fit-margin-left="0" fit-margin-bottom="0" fit-margin-right="0" units="px" borderlayer="true" />
  <metadata id="metadata4226">
    <rdf:RDF>
      <cc:Work rdf:about="">
        <dc:format>image/svg+xml</dc:format>
        <dc:type rdf:resource="http://purl.org/dc/dcmitype/StillImage" />
        <dc:title />
      </cc:Work>
    </rdf:RDF>
  </metadata>
  <g inkscape:groupmode="layer" id="layer2" inkscape:label="Base" transform="translate(33.71,-86.63)">
    <rect style="color:#000000;fill:#ffffff;fill-opacity:1;fill-rule:nonzero;stroke:none;stroke-width:2;marker:none;visibility:visible;display:inline;overflow:visible;enable-background:accumulate" id="rect4916" width="273" height="529.2" x="-33.71" y="86.63" />
    <path sodipodi:nodetypes="cc" inkscape:connector-curvature="0" id="path7494-1-6-3-5-8-3-1-1-8-7-3-2-46" d="m 81.73,514.5 c -0.69,-6.8 33.07,-9.6 33.07,-1.3" style="fill:none;stroke:#aaaaaa;stroke-width:1.378;stroke-linecap:round;stroke-linejoin:miter;stroke-miterlimit:4;stroke-opacity:1;stroke-dasharray:2.756, 2.756;stroke-dashoffset:0;marker-start:url(#marker7359);marker-end:url(#marker7359)" />
    <path style="fill:none;stroke:#dba981;stroke-width:1.378;stroke-linecap:round;stroke-linejoin:miter;stroke-miterlimit:4;stroke-opacity:1;stroke-dasharray:4.134, 1.378;stroke-dashoffset:0" d="m 166.5,152.1 c -24.1,-0.7 -49.6,2.8 -63.4,-3.4" id="path3829-9-1-88-5-3" inkscape:connector-curvature="0" sodipodi:nodetypes="cc" />
    <path inkscape:connector-curvature="0" id="path17963-7" d="m 158.2,222.4 c 1.4,-15.8 9,-31.7 9.7,-47.5 c 0.6,-6.9 -2.1,-14.5 -2.1,-21.4" style="fill:none;stroke:#dba981;stroke-width:4.1222;stroke-linecap:round;stroke-linejoin:miter;stroke-miterlimit:4;stroke-opacity:1;stroke-dasharray:none" sodipodi:nodetypes="cac" />
    <path inkscape:connector-curvature="0" id="path2997-1-2-9-0-7" d="M 102.4,145.2 C 101,154.9 96.2,161.8 89.31,170 C 76.9,184.5 72.08,206.6 72.77,226.5 c 0,15.2 16.54,42.8 16.54,42.8 c 0,0 -2.07,44.7 -2.76,66.8 c 0,13.1 0,30.3 0,40 C 83.11,387.8 73.46,411.9 72.77,425 c -2.07,28.9 15.85,49.6 13.09,83.3 c -0.69,4.9 -2.75,13.8 -2.75,20.7 c 0,4.2 -2.07,9.7 0.68,13.1 c 2.07,2.8 6.21,3.5 9.65,4.8 c 3.45,2.1 6.86,2.1 11.06,2.8 c 7.5,2.1 15.1,6.9 24.1,7.6 c 11.7,2 31.7,0 35.8,-2.8 c 3.5,-2.1 0,-5.5 -1.4,-8.3 c -2.7,-3.4 -8.9,-4.1 -11.7,-6.2 c -8.3,-4.1 -15.1,-10.3 -22.7,-15.1 c -5.5,-3.5 -13.8,-6.2 -15.9,-9 c 0,0 -0.7,-9.6 0.7,-17.2 c 2.1,-16.5 3.5,-31.7 4.8,-59.3 c 0.7,-13.7 0.7,-27.5 4.2,-40.6 c 0.7,-6.2 8.9,-15.2 11,-20.7 c 4.8,-11.7 4.8,-20.6 7.6,-33 c 8.2,-26.2 17.2,-52.4 19.3,-80 c 0.7,-15.1 -3.5,-28.9 -2.1,-44.8" style="fill:none;stroke:#dba981;stroke-width:4.1222;stroke-linecap:round;stroke-linejoin:miter;stroke-miterlimit:4;stroke-opacity:1;stroke-dasharray:none" sodipodi:nodetypes="csccaccsacccccccaccsccccc" />
    <path style="fill:none;stroke:#dba981;stroke-width:2.067;stroke-linecap:butt;stroke-linejoin:miter;stroke-miterlimit:4;stroke-opacity:1;stroke-dasharray:none" d="m 98.26,515.9 l -6.2,5.5 l 6.2,4.2" id="path7657" inkscape:connector-curvature="0" />
    <path sodipodi:nodetypes="cc" inkscape:connector-curvature="0" id="path7494-1-6-3-5-8-3-1-1-8-7-3-2-7-7" d="m 81.73,514.5 c -0.69,9 33.07,8.3 33.07,-0.6" style="fill:none;stroke:#000000;stroke-width:2.067;stroke-linecap:round;stroke-linejoin:miter;stroke-miterlimit:4;stroke-opacity:1;stroke-dasharray:none;marker-start:url(#marker7359);marker-end:url(#marker7359)" />
  </g>
  <g inkscape:label="Graphics" inkscape:groupmode="layer" id="layer1" transform="translate(52.1,-522.8)" style="display:inline" />
</svg>
