<?xml version="1.0" encoding="UTF-8" standalone="no"?>
<!-- Created with Inkscape (http://www.inkscape.org/) -->

<svg xmlns:dc="http://purl.org/dc/elements/1.1/" xmlns:cc="http://creativecommons.org/ns#" xmlns:rdf="http://www.w3.org/1999/02/22-rdf-syntax-ns#" xmlns:svg="http://www.w3.org/2000/svg" xmlns="http://www.w3.org/2000/svg" xmlns:sodipodi="http://sodipodi.sourceforge.net/DTD/sodipodi-0.dtd" xmlns:inkscape="http://www.inkscape.org/namespaces/inkscape" width="273" height="529.2" id="svg4221" version="1.1" inkscape:version="0.48.4 r9939" sodipodi:docname="leg_waist_side_to_ankle.svg" inkscape:export-filename="/home/susan/Documents/Valentina/Measurements/Database/images/A1.png" inkscape:export-xdpi="96" inkscape:export-ydpi="96">
  <defs id="defs4223">
    <marker inkscape:stockid="Arrow2Mend" orient="auto" refY="0" refX="0" id="marker18919" style="overflow:visible">
      <path id="path18921" style="fill-rule:evenodd;stroke-width:0.625;stroke-linejoin:round" d="M 8.719,4.034 L -2.207,0.016 L 8.719,-4.002 c -1.746,2.372 -1.736,5.618 0,8.036 z" transform="scale(-0.6,-0.6)" inkscape:connector-curvature="0" />
    </marker>
  </defs>
  <sodipodi:namedview id="base" pagecolor="#ffffff" bordercolor="#666666" borderopacity="1.0" inkscape:pageopacity="0.0" inkscape:pageshadow="2" inkscape:zoom="1.674" inkscape:cx="204.7" inkscape:cy="246.1" inkscape:document-units="px" inkscape:current-layer="layer2" showgrid="false" fit-margin-top="0" fit-margin-left="0" fit-margin-bottom="0" fit-margin-right="0" units="px" borderlayer="true" />
  <metadata id="metadata4226">
    <rdf:RDF>
      <cc:Work rdf:about="">
        <dc:format>image/svg+xml</dc:format>
        <dc:type rdf:resource="http://purl.org/dc/dcmitype/StillImage" />
        <dc:title />
      </cc:Work>
    </rdf:RDF>
  </metadata>
  <g inkscape:groupmode="layer" id="layer2" inkscape:label="Base" transform="translate(33.71,-15.29)">
    <rect style="color:#000000;fill:#ffffff;fill-opacity:1;fill-rule:nonzero;stroke:none;stroke-width:2;marker:none;visibility:visible;display:inline;overflow:visible;enable-background:accumulate" id="rect4916" width="273" height="529.2" x="-33.71" y="15.29" />
    <path style="fill:none;stroke:#dba981;stroke-width:2.0155;stroke-linecap:butt;stroke-linejoin:miter;stroke-miterlimit:4;stroke-opacity:1;stroke-dasharray:6.0465, 2.0155;stroke-dashoffset:0" d="m 150.7,439.7 l 38.5,0" id="path8471-6-6-72-2-3-8-9" inkscape:connector-curvature="0" sodipodi:nodetypes="cc" />
    <path style="fill:none;stroke:#dba981;stroke-width:1.6124;stroke-linecap:round;stroke-linejoin:miter;stroke-miterlimit:4;stroke-opacity:1;stroke-dasharray:4.8372, 1.6124;stroke-dashoffset:0" d="m 40.69,43.3 l 100.01,0" id="path8471-6-6-72-2-3-5" inkscape:connector-curvature="0" sodipodi:nodetypes="cc" />
    <path sodipodi:nodetypes="csc" inkscape:connector-curvature="0" id="path7494-1-6-3-5-8-3-1-5-5-6-1-2" d="m 188.6,439.1 c 0.8,-21 -2,-203.9 -0.4,-303.1 C 189,82.8 163.2,53.78 156.8,40.88" style="fill:none;stroke:#7dc832;stroke-width:2.4186;stroke-linecap:round;stroke-linejoin:miter;stroke-miterlimit:4;stroke-opacity:0.9412;stroke-dasharray:none;marker-start:url(#marker7359);marker-end:url(#marker7359)" />
    <path style="fill:none;stroke:#dba981;stroke-width:2.9999;stroke-linecap:round;stroke-linejoin:miter;stroke-miterlimit:4;stroke-opacity:1;stroke-dasharray:none;display:inline" d="m 142,44.35 c 0.8,7.3 4.9,12.9 8.1,18.5 c 5.6,13.74 13.8,25.83 17,40.35 c 4,15.3 5.7,31.5 4.9,47.6 c -0.9,19.4 -5.7,38.7 -8.1,57.3 c -4,20.1 -8.2,40.3 -11.4,60.4 c -1.6,9.7 -4.8,20.2 -4.8,30.7 c 0.8,6.4 4,12.9 4.8,20.1 c 1.6,12.9 2.4,26.6 1.6,39.5 c -0.8,12.1 -3.2,23.4 -4,34.7 c -1.6,12.1 -2.4,25 -2.4,37.1 c 0.8,5.6 2.9,9.6 2.9,9.6 l -0.2,12.9 c 4,15.4 15.9,45.2 6.9,54.1 c -8,9.6 -11.2,18.5 -25,8.8 c -4,-4.8 -5.6,-14.5 -8,-21.7 c -1.6,-8.1 -0.4,-32.3 -3.6,-42 l -3.3,-10.4 c 0,0 1.2,-5.7 1.2,-14.6 c -2.4,-17.7 -9.6,-45.1 -11.2,-62.8 c -2.5,-14.6 0.8,-29.9 0,-44.4 c -0.9,-8 -2.5,-16.1 -2.5,-23.4 c -2.4,-26.6 -1.6,-53.2 -4.8,-79.8 c -2.44,-15.3 -8.08,-48.3 -8.08,-48.3 c 0,0 -4.84,30.6 -7.26,46.7 c -3.22,26.6 -6.45,54 -8.06,80.6 c -0.81,8.1 -2.42,15.4 -3.22,23.4 c -0.81,15.3 2.41,29.8 0,44.4 c -1.62,17.7 -8.86,34.6 -10.47,52.4 c -0.81,8.8 -0.81,26.6 -0.81,26.6 l -0.81,12.1 c -3.22,10.4 -4.03,33 -4.03,39.5 c -3.22,7.2 -4.03,16.9 -8.06,20.9 c -17.75,9.7 -17.75,0.8 -25.81,-8 c -8.06,-9.7 0.81,-25 4.84,-40.4 l 2.42,-19.3 c 0,0 1.61,-11.3 2.42,-17.7 c 0,-12.1 -0.81,-24.2 -2.42,-37.1 c -0.81,-11.3 -3.23,-22.6 -4.03,-33.9 c -0.81,-13.7 0,-27.4 1.61,-40.3 c 1.61,-6.4 4.03,-12.9 4.84,-20.1 c 0,-10.5 -3.23,-20.2 -4.84,-30.7 C 25.1,247.6 21.07,228.2 17.04,208.1 C 14.62,188.7 9.798,170.2 8.988,150.8 c 0,-16.1 0.81,-33.1 4.832,-48.4 C 17.04,88.68 25.1,75.78 30.75,62.85 c 3.22,-6.4 7.25,-12.1 8.06,-18.5" id="path8426-8-4-0-4-0-8" inkscape:connector-curvature="0" sodipodi:nodetypes="ccccccccccccccccccccccccccccscccccccccccccccccc" />
  </g>
  <g inkscape:label="Graphics" inkscape:groupmode="layer" id="layer1" transform="translate(52.1,-451.5)" style="display:inline" />
</svg>
