<?xml version="1.0" encoding="UTF-8" standalone="no"?>
<!-- Created with Inkscape (http://www.inkscape.org/) -->

<svg xmlns:dc="http://purl.org/dc/elements/1.1/" xmlns:cc="http://creativecommons.org/ns#" xmlns:rdf="http://www.w3.org/1999/02/22-rdf-syntax-ns#" xmlns:svg="http://www.w3.org/2000/svg" xmlns="http://www.w3.org/2000/svg" xmlns:sodipodi="http://sodipodi.sourceforge.net/DTD/sodipodi-0.dtd" xmlns:inkscape="http://www.inkscape.org/namespaces/inkscape" width="273" height="529.2" id="svg4221" version="1.1" inkscape:version="0.48.4 r9939" sodipodi:docname="neck_back_to_across_back.svg" inkscape:export-filename="/home/susan/Documents/Valentina/Measurements/Database/images/A1.png" inkscape:export-xdpi="96" inkscape:export-ydpi="96">
  <defs id="defs4223">
    <marker inkscape:stockid="Arrow2Mend" orient="auto" refY="0" refX="0" id="marker18919" style="overflow:visible">
      <path id="path18921" style="fill-rule:evenodd;stroke-width:0.625;stroke-linejoin:round" d="M 8.719,4.034 L -2.207,0.016 L 8.719,-4.002 c -1.746,2.372 -1.736,5.618 0,8.036 z" transform="scale(-0.6,-0.6)" inkscape:connector-curvature="0" />
    </marker>
    <marker inkscape:stockid="Arrow2Mend" orient="auto" refY="0" refX="0" id="marker5153" style="overflow:visible">
      <path id="path5155" style="fill-rule:evenodd;stroke-width:0.625;stroke-linejoin:round" d="M 8.719,4.034 L -2.207,0.016 L 8.719,-4.002 c -1.746,2.372 -1.736,5.618 0,8.036 z" transform="scale(-0.6,-0.6)" inkscape:connector-curvature="0" />
    </marker>
    <marker inkscape:stockid="Arrow2Mend" orient="auto" refY="0" refX="0" id="marker17459" style="overflow:visible">
      <path id="path17461" style="fill-rule:evenodd;stroke-width:0.625;stroke-linejoin:round" d="M 8.719,4.034 L -2.207,0.016 L 8.719,-4.002 c -1.746,2.372 -1.736,5.618 0,8.036 z" transform="scale(-0.6,-0.6)" inkscape:connector-curvature="0" />
    </marker>
    <marker inkscape:stockid="Arrow2Mend" orient="auto" refY="0" refX="0" id="marker8958" style="overflow:visible">
      <path id="path8960" style="fill-rule:evenodd;stroke-width:0.625;stroke-linejoin:round" d="M 8.719,4.034 L -2.207,0.016 L 8.719,-4.002 c -1.746,2.372 -1.736,5.618 0,8.036 z" transform="scale(-0.6,-0.6)" inkscape:connector-curvature="0" />
    </marker>
    <marker inkscape:stockid="Arrow2Mend" orient="auto" refY="0" refX="0" id="marker18919-6" style="overflow:visible">
      <path id="path18921-1" style="fill-rule:evenodd;stroke-width:0.625;stroke-linejoin:round" d="M 8.719,4.034 L -2.207,0.016 L 8.719,-4.002 c -1.746,2.372 -1.736,5.618 0,8.036 z" transform="scale(-0.6,-0.6)" inkscape:connector-curvature="0" />
    </marker>
    <marker inkscape:stockid="Arrow2Mend" orient="auto" refY="0" refX="0" id="marker18919-0" style="overflow:visible">
      <path id="path18921-2" style="fill-rule:evenodd;stroke-width:0.625;stroke-linejoin:round" d="M 8.719,4.034 L -2.207,0.016 L 8.719,-4.002 c -1.746,2.372 -1.736,5.618 0,8.036 z" transform="scale(-0.6,-0.6)" inkscape:connector-curvature="0" />
    </marker>
  </defs>
  <sodipodi:namedview id="base" pagecolor="#ffffff" bordercolor="#666666" borderopacity="1.0" inkscape:pageopacity="0.0" inkscape:pageshadow="2" inkscape:zoom="1.674" inkscape:cx="-110.8" inkscape:cy="264.6" inkscape:document-units="px" inkscape:current-layer="layer1" showgrid="false" fit-margin-top="0" fit-margin-left="0" fit-margin-bottom="0" fit-margin-right="0" units="px" borderlayer="true" />
  <metadata id="metadata4226">
    <rdf:RDF>
      <cc:Work rdf:about="">
        <dc:format>image/svg+xml</dc:format>
        <dc:type rdf:resource="http://purl.org/dc/dcmitype/StillImage" />
        <dc:title></dc:title>
      </cc:Work>
    </rdf:RDF>
  </metadata>
  <g inkscape:groupmode="layer" id="layer2" inkscape:label="Base" transform="translate(67.17,-15.29)">
    <rect style="color:#000000;fill:#ffffff;fill-opacity:1;fill-rule:nonzero;stroke:none;stroke-width:2;marker:none;visibility:visible;display:inline;overflow:visible;enable-background:accumulate" id="rect4916" width="273" height="529.2" x="-67.17" y="15.29" />
  </g>
  <g inkscape:label="Graphics" inkscape:groupmode="layer" id="layer1" transform="translate(85.56,-451.5)" style="display:inline">
    <g id="g9404">
      <path style="fill:none;stroke:#dba981;stroke-width:2.5;stroke-linecap:round;stroke-linejoin:miter;stroke-miterlimit:4;stroke-opacity:1;stroke-dasharray:7.5, 7.5;stroke-dashoffset:0;display:inline" d="m 31,646 l 35,0" id="path8471-6-6-6-8-7-8-3-3-9-3-9-1-0-2-9-3-0-4-0-2-4" inkscape:connector-curvature="0" sodipodi:nodetypes="cc" />
      <path style="fill:none;stroke:#dba981;stroke-width:1.2004;stroke-linecap:round;stroke-linejoin:miter;stroke-miterlimit:4;stroke-opacity:1;stroke-dasharray:3.6013, 1.2004;stroke-dashoffset:0;display:inline" d="m -10,791 l 119,0" id="path8471-6-6-6-8-7-8-3-3-9-3-9-1-3-3-4-6-5-0-7-5-0" inkscape:connector-curvature="0" sodipodi:nodetypes="cc" />
      <path sodipodi:nodetypes="cc" inkscape:connector-curvature="0" id="path8471-6-6-6-8-7-8-3-3-9-3-9-1-3-3-4-6-5-0-7-9" d="m -17,764 l 133,0" style="fill:none;stroke:#dba981;stroke-width:1.2004;stroke-linecap:round;stroke-linejoin:miter;stroke-miterlimit:4;stroke-opacity:1;stroke-dasharray:3.6013, 1.2004;stroke-dashoffset:0" />
      <path sodipodi:nodetypes="cc" inkscape:connector-curvature="0" id="path8471-6-6-6-8-7-8-3-3-9-3-9-1-0-2-9-3-0-4-0-8" d="m -21,733 l 142,0" style="fill:none;stroke:#dba981;stroke-width:1.2004;stroke-linecap:round;stroke-linejoin:miter;stroke-miterlimit:4;stroke-opacity:1;stroke-dasharray:3.6013, 1.2004;stroke-dashoffset:0" />
      <path style="fill:none;stroke:#dba981;stroke-width:1.2004;stroke-linecap:round;stroke-linejoin:miter;stroke-miterlimit:4;stroke-opacity:1;stroke-dasharray:3.6013, 1.2004;stroke-dashoffset:0" d="m 21,651 c 12,-6 46,-7 58,1" id="path3992-4-77-9-5-7-1-0-3-9-9-0-7-8-2-2-3" inkscape:connector-curvature="0" sodipodi:nodetypes="cc" />
      <path style="fill:none;stroke:#dba981;stroke-width:2.9999;stroke-linecap:round;stroke-linejoin:miter;stroke-miterlimit:4;stroke-opacity:1;stroke-dasharray:none" d="m 122,733 c -16,-20 -8,-41 0,-64" id="path8584-0-8-6-3-5-9-1-8-8-0-5-1-2" inkscape:connector-curvature="0" sodipodi:nodetypes="cc" />
      <path style="fill:none;stroke:#dba981;stroke-width:2.9999;stroke-linecap:round;stroke-linejoin:miter;stroke-miterlimit:4;stroke-opacity:1;stroke-dasharray:none" d="m -21,733 c 13,-19 11,-37 -2,-64" id="path8584-6-5-3-6-1-2-7-3-1-8-7-6-8-4" inkscape:connector-curvature="0" sodipodi:nodetypes="cc" />
      <path style="fill:none;stroke:#dba981;stroke-width:2.9999;stroke-linecap:round;stroke-linejoin:miter;stroke-miterlimit:4;stroke-opacity:1;stroke-dasharray:none" d="m -4,824 c -3,-18 -5,-31 -9,-48 c -3,-12 -2,-24 -6,-36 c -10,-20 -21,-49 -7,-69 c 7,-9 28,-8 44,-18 c 7,-5 6,-15 5,-23 c 23,-7 31,-8 54,0 c -1,8 -2,19 5,24 c 16,9 37,8 44,17 c 18,24 2,49 -7,70 c -4,11 -4,23 -7,35 c -3,17 -6,31 -9,47" id="path11142-0-5-6-7-5-6-6-2-2" inkscape:connector-curvature="0" sodipodi:nodetypes="cccccccccccc" />
      <path sodipodi:nodetypes="cc" inkscape:connector-curvature="0" id="path8471-6-6-6-8-7-8-3-3-9-1-2-5-4-2-0-8-1-2" d="m -2,823 l 105,0" style="fill:none;stroke:#dba981;stroke-width:1.2004;stroke-linecap:round;stroke-linejoin:miter;stroke-miterlimit:4;stroke-opacity:1;stroke-dasharray:3.6013, 1.2004;stroke-dashoffset:0" />
      <text xml:space="preserve" style="font-size:14.5116px;font-style:normal;font-variant:normal;font-weight:normal;font-stretch:normal;text-align:start;line-height:125%;letter-spacing:0px;word-spacing:0px;writing-mode:lr-tb;text-anchor:start;fill:#000000;fill-opacity:1;stroke:none;font-family:Standard Symbols L;-inkscape-font-specification:Standard Symbols L" x="32.348999" y="618.31836" id="text6934-6-9-7-0-3-1-4-9-8-3" sodipodi:linespacing="125%"><tspan sodipodi:role="line" id="tspan6936-4-8-0-8-8-8-8-3-9-1" x="32.348999" y="618.31836">Back</tspan></text>
      <path style="fill:none;stroke:#dba981;stroke-width:1.2004;stroke-linecap:round;stroke-linejoin:miter;stroke-miterlimit:4;stroke-opacity:1;stroke-dasharray:3.6013, 1.2004;stroke-dashoffset:0" d="m -17,745 l 133,0" id="path8471-6-6-6-8-7-8-3-3-9-3-9-1-5-9-7-0-5-8-6" inkscape:connector-curvature="0" sodipodi:nodetypes="cc" />
      <path sodipodi:nodetypes="cc" inkscape:connector-curvature="0" id="path8471-6-6-6-8-7-8-3-3-9-3-9-1-0-2-9-3-0-4-0-8-7" d="m -10,700 l 123,0" style="fill:none;stroke:#dba981;stroke-width:1.2004;stroke-linecap:round;stroke-linejoin:miter;stroke-miterlimit:4;stroke-opacity:1;stroke-dasharray:3.6013, 1.2004;stroke-dashoffset:0;display:inline" />
      <path style="fill:none;stroke:#000000;stroke-width:3.2248;stroke-linecap:round;stroke-linejoin:round;stroke-miterlimit:4;stroke-opacity:1;stroke-dasharray:none;marker-start:url(#marker7359);marker-end:url(#marker7359);display:inline" d="m 51,700 l 0,-53" id="path7494-1-6-3-5-81-64-9-2-0-5-7-3-2-4-0-9-7-74-8-2-9" inkscape:connector-curvature="0" sodipodi:nodetypes="cc" />
    </g>
  </g>
</svg>
