<?xml version="1.0" encoding="UTF-8" standalone="no"?>
<!-- Created with Inkscape (http://www.inkscape.org/) -->

<svg xmlns:dc="http://purl.org/dc/elements/1.1/" xmlns:cc="http://creativecommons.org/ns#" xmlns:rdf="http://www.w3.org/1999/02/22-rdf-syntax-ns#" xmlns:svg="http://www.w3.org/2000/svg" xmlns="http://www.w3.org/2000/svg" xmlns:sodipodi="http://sodipodi.sourceforge.net/DTD/sodipodi-0.dtd" xmlns:inkscape="http://www.inkscape.org/namespaces/inkscape" width="275" height="531.2" id="svg4221" version="1.1" inkscape:version="0.48.4 r9939" sodipodi:docname="E02.svg" inkscape:export-filename="/home/susan/Documents/Valentina/Measurements/Database/images/A1.png" inkscape:export-xdpi="96" inkscape:export-ydpi="96">
  <defs id="defs4223" />
  <sodipodi:namedview id="base" pagecolor="#ffffff" bordercolor="#666666" borderopacity="1.0" inkscape:pageopacity="0.0" inkscape:pageshadow="2" inkscape:zoom="1.572" inkscape:cx="-73.08" inkscape:cy="265.1" inkscape:document-units="px" inkscape:current-layer="layer1" showgrid="false" fit-margin-top="0" fit-margin-left="0" fit-margin-bottom="0" fit-margin-right="0" units="px" borderlayer="true" />
  <metadata id="metadata4226">
    <rdf:RDF>
      <cc:Work rdf:about="">
        <dc:format>image/svg+xml</dc:format>
        <dc:type rdf:resource="http://purl.org/dc/dcmitype/StillImage" />
        <dc:title />
      </cc:Work>
    </rdf:RDF>
  </metadata>
  <g inkscape:label="Layer 1" inkscape:groupmode="layer" id="layer1" transform="translate(1.231,-435.2)">
    <rect style="color:#000000;fill:#ffffff;fill-opacity:1;fill-rule:nonzero;stroke:none;stroke-width:2;stroke-linecap:butt;stroke-linejoin:round;stroke-miterlimit:4;stroke-opacity:1;stroke-dasharray:6, 2;stroke-dashoffset:0;marker:none;visibility:visible;display:inline;overflow:visible;enable-background:accumulate" id="rect4916" width="273" height="529.2" x="1.195" y="0.5973" transform="translate(-1.426,435.6)" />
    <g style="display:inline" id="g9565" transform="translate(-454.7,-1204)">
      <path style="fill:none;stroke:#dba981;stroke-width:2.8325;stroke-linecap:round;stroke-linejoin:miter;stroke-miterlimit:4;stroke-opacity:1;stroke-dasharray:8.4975, 2.8325;stroke-dashoffset:0" d="m 511.2,1964 l 6.8,-2 l 29.4,-1 l 48.8,3 l 52.1,5" id="path3874-7-8-0-3" inkscape:connector-curvature="0" sodipodi:nodetypes="ccccc" />
      <path style="fill:none;stroke:#dba981;stroke-width:2.8325;stroke-linecap:round;stroke-linejoin:miter;stroke-miterlimit:4;stroke-opacity:1;stroke-dasharray:8.4975, 2.8325;stroke-dashoffset:0" d="m 496.5,1898 c 0,0 9.9,-7 15.8,-9 c 14.5,-4 30.8,0 45.1,0 c 5.9,0 26.5,-3 43.3,0 c 21,4 45.3,25 58.9,26" id="path3868-7-7-4-4" inkscape:connector-curvature="0" sodipodi:nodetypes="cacsc" />
      <path style="fill:none;stroke:#dba981;stroke-width:2.8325;stroke-linecap:round;stroke-linejoin:miter;stroke-miterlimit:4;stroke-opacity:1;stroke-dasharray:8.4975, 2.8325;stroke-dashoffset:0" d="m 542.9,1802 c -7.9,19 57.8,23 71.4,-2" id="path3876-91-29-8-7" inkscape:connector-curvature="0" sodipodi:nodetypes="cc" />
      <path style="fill:none;stroke:#dba981;stroke-width:2.8325;stroke-linecap:round;stroke-linejoin:miter;stroke-miterlimit:4;stroke-opacity:1;stroke-dasharray:8.4975, 2.8325;stroke-dashoffset:0" d="m 514.6,2033 c 28.3,5 95.2,9 131.4,-3" id="path3878-7-1-40-0" inkscape:connector-curvature="0" sodipodi:nodetypes="cc" />
      <path style="fill:none;stroke:#dba981;stroke-width:2.8325;stroke-linecap:round;stroke-linejoin:miter;stroke-miterlimit:4;stroke-opacity:1;stroke-dasharray:8.4975, 2.8325;stroke-dashoffset:0" d="m 493.1,1919 c 0,0 10.7,-5 16.4,-5 c 15.6,-1 34.5,5 45.9,9 c 14.7,-6 27.6,-8 41.7,-8 c 20.6,1 42.1,10 60.2,15" id="path3872-1-8-9-0" inkscape:connector-curvature="0" sodipodi:nodetypes="cacac" />
      <path sodipodi:nodetypes="csc" inkscape:connector-curvature="0" id="path2993-6-7-5" d="m 658.5,1911 c 2.2,4 -6.8,51 -15.9,75 c -4.5,13 -6.8,35 -5.6,48" style="fill:none;stroke:#dba981;stroke-width:2.8325;stroke-linecap:round;stroke-linejoin:miter;stroke-miterlimit:4;stroke-opacity:1;stroke-dasharray:8.4975, 2.8325;stroke-dashoffset:0" />
      <path sodipodi:nodetypes="caac" inkscape:connector-curvature="0" id="path3009-0-7-5" d="m 675.5,1819 c -17,4 -21.6,10 -27.2,20 c -10.2,18 -20.4,45 -7.9,62 c 6.7,9 27.1,15 33.9,6" style="fill:none;stroke:#dba981;stroke-width:5.0985;stroke-linecap:round;stroke-linejoin:miter;stroke-miterlimit:4;stroke-opacity:1;stroke-dasharray:none" />
      <path sodipodi:nodetypes="csc" inkscape:connector-curvature="0" id="path3011-2-2-3" d="m 548.6,1780 c 0,0 12.4,6 19.2,6 c 37.4,2 46.5,-10 46.5,-10" style="fill:none;stroke:#dba981;stroke-width:5.0985;stroke-linecap:round;stroke-linejoin:miter;stroke-miterlimit:4;stroke-opacity:1;stroke-dasharray:none" />
      <path style="fill:none;stroke:#dba981;stroke-width:2.266;stroke-linecap:round;stroke-linejoin:miter;stroke-miterlimit:4;stroke-opacity:1;stroke-dasharray:6.798, 2.266;stroke-dashoffset:0" d="m 607.5,1782 c 3.4,12 1.1,11 4.5,14 c 11.4,14 35.1,19 49.9,23" id="path3992-4-9-6-1-0-0-1" inkscape:connector-curvature="0" sodipodi:nodetypes="cac" />
      <path sodipodi:nodetypes="cccscccccccacacccc" inkscape:connector-curvature="0" id="path15557" d="m 512.3,2032 c 2.3,-15 -1.1,-33 -2.2,-48 c 0,-7 2.2,-12 0,-22 c -10.2,-9 -19.3,-30 -19.3,-45 c 0,-13 9.1,-22 12.5,-37 c 2.2,-7 -6.8,-17 -9.1,-29 c -3.4,-11 0,-24 5.7,-26 c 11.3,-2 29.4,-10 39.6,-18 c 9.1,-9 7.9,-27 7.9,-27 c 0,0 1.2,-6 19.3,-8 c 17,-1 48.7,4 48.7,4 c 0,0 -1.1,12 2.3,17 c 12.5,15 43,18 54.4,23 c 17,7 15.8,14 18.1,23 c 4.5,24 -9.1,51 -17,70 c -6.8,15 -6.8,33 -11.3,49 c -3.4,10 -6.8,19 -10.2,29 c -2.3,9 -5.7,32 -4.6,42" style="fill:none;stroke:#dba981;stroke-width:5.0985;stroke-linecap:round;stroke-linejoin:round;stroke-miterlimit:4;stroke-opacity:1;stroke-dasharray:none" />
      <path sodipodi:nodetypes="cccc" inkscape:connector-curvature="0" id="path3874-7-8-0-4-6" d="m 513.5,1991 l 6.8,-1 c 26,-4 50.9,-1 78.1,1 l 40.8,4" style="fill:none;stroke:#dba981;stroke-width:2.8325;stroke-linecap:round;stroke-linejoin:miter;stroke-miterlimit:4;stroke-opacity:1;stroke-dasharray:8.4975, 2.8325;stroke-dashoffset:0" />
      <path style="fill:none;stroke:#000000;stroke-width:3.399;stroke-linecap:round;stroke-linejoin:round;stroke-miterlimit:4;stroke-opacity:1;stroke-dasharray:none;marker-start:url(#marker7359);marker-end:url(#marker7359)" d="m 554.4,2034 c -6.2,-112 1,-145 16.8,-215" id="path7494-1-6-3-5-81-64-9-2-0-5-7-3-2-4-0-9-7-9-10" inkscape:connector-curvature="0" sodipodi:nodetypes="cc" />
    </g>
  </g>
</svg>
