<?xml version="1.0" encoding="UTF-8" standalone="no"?>
<!-- Created with Inkscape (http://www.inkscape.org/) -->

<svg xmlns:dc="http://purl.org/dc/elements/1.1/" xmlns:cc="http://creativecommons.org/ns#" xmlns:rdf="http://www.w3.org/1999/02/22-rdf-syntax-ns#" xmlns:svg="http://www.w3.org/2000/svg" xmlns="http://www.w3.org/2000/svg" xmlns:sodipodi="http://sodipodi.sourceforge.net/DTD/sodipodi-0.dtd" xmlns:inkscape="http://www.inkscape.org/namespaces/inkscape" width="275" height="531.2" id="svg4221" version="1.1" inkscape:version="0.48.4 r9939" sodipodi:docname="D07.svg" inkscape:export-filename="/home/susan/Documents/Valentina/Measurements/Database/images/A1.png" inkscape:export-xdpi="96" inkscape:export-ydpi="96">
  <defs id="defs4223" />
  <sodipodi:namedview id="base" pagecolor="#ffffff" bordercolor="#666666" borderopacity="1.0" inkscape:pageopacity="0.0" inkscape:pageshadow="2" inkscape:zoom="1.572" inkscape:cx="149.3" inkscape:cy="210.3" inkscape:document-units="px" inkscape:current-layer="layer1" showgrid="false" fit-margin-top="0" fit-margin-left="0" fit-margin-bottom="0" fit-margin-right="0" units="px" borderlayer="true" />
  <metadata id="metadata4226">
    <rdf:RDF>
      <cc:Work rdf:about="">
        <dc:format>image/svg+xml</dc:format>
        <dc:type rdf:resource="http://purl.org/dc/dcmitype/StillImage" />
        <dc:title />
      </cc:Work>
    </rdf:RDF>
  </metadata>
  <g inkscape:label="Layer 1" inkscape:groupmode="layer" id="layer1" transform="translate(1.231,-435.2)">
    <rect style="color:#000000;fill:#ffffff;fill-opacity:1;fill-rule:nonzero;stroke:none;stroke-width:2;stroke-linecap:butt;stroke-linejoin:round;stroke-miterlimit:4;stroke-opacity:1;stroke-dasharray:6, 2;stroke-dashoffset:0;marker:none;visibility:visible;display:inline;overflow:visible;enable-background:accumulate" id="rect4916" width="273" height="529.2" x="1.195" y="0.5973" transform="translate(-1.426,435.6)" />
    <g id="g29851">
      <path sodipodi:nodetypes="cc" inkscape:connector-curvature="0" id="path27588-14" d="m 68.52,761.4 c 18.4,-9 98.68,-4.8 117.68,-1.8" style="fill:none;stroke:#aaaaaa;stroke-width:2.5;stroke-linecap:round;stroke-linejoin:miter;stroke-miterlimit:4;stroke-opacity:1;stroke-dasharray:10, 2.5;stroke-dashoffset:0" />
      <path style="fill:none;stroke:#dba981;stroke-width:4.5;stroke-linecap:round;stroke-linejoin:miter;stroke-miterlimit:4;stroke-opacity:1;stroke-dasharray:none" d="m 49.8,890.6 c -1.2,-18 -2,-37 -0.4,-55 c 1.4,-17 4.6,-33 9,-49 c 2.6,-9 8.8,-16 10.2,-25 c 1.8,-14 -2.8,-27 -3.4,-41 c -0.4,-6 1.9,-10 -0.2,-18 c -8.3,-8 -17.2,-28 -16.9,-40 c 0.2,-13 7.7,-21 11.2,-33 c 1.6,-6 -6,-15 -8.4,-25 c -2.3,-11 0.8,-23 5,-24 c 10.7,-2 26.1,-9 34.7,-16 c 8.6,-7 12.5,-28 9.4,-47 c 12.3,-13 59.5,-3 59.5,-3 c 0,0 -3.3,26 2.7,34 c 10,14 35.6,20 44.6,24 c 16,7 15.1,12 17,21 c 4.4,21 -8,44 -16,61 c -5,14 -5,29 -9,43 c -3,9 -7,17 -8.6,26 c -2,9 -5,18 -5,27 c 1,12 5,25 10.6,35 c 6,11 15,31 20,48 c 5,15 6,31 7,47" id="path4164" inkscape:connector-curvature="0" sodipodi:nodetypes="cccccccccccccccaccccccc" />
      <path sodipodi:nodetypes="cc" inkscape:connector-curvature="0" id="path3878-2-2" d="m 68.8,762.6 c -3.2,10 120.4,6 117.4,-3" style="fill:none;stroke:#000000;stroke-width:3;stroke-linecap:round;stroke-linejoin:miter;stroke-miterlimit:4;stroke-opacity:1;stroke-dasharray:none" />
      <path sodipodi:nodetypes="caac" inkscape:connector-curvature="0" id="path3009-9-1" d="m 210.8,574.6 c -11.9,3 -19.4,9 -24.6,18 c -9.4,16 -19,41 -7,55 c 6.5,8 24.2,9 30.2,1" style="fill:none;stroke:#dba981;stroke-width:4.5;stroke-linecap:round;stroke-linejoin:miter;stroke-miterlimit:4;stroke-opacity:1;stroke-dasharray:none" />
      <path sodipodi:nodetypes="csc" inkscape:connector-curvature="0" id="path3011-4-0" d="m 101.8,519.2 c 0,0 7.4,4 20.9,4 c 30,-1 36.4,-8 36.4,-8" style="fill:none;stroke:#dba981;stroke-width:4.5;stroke-linecap:round;stroke-linejoin:round;stroke-miterlimit:4;stroke-opacity:1;stroke-dasharray:none" />
    </g>
  </g>
</svg>
